G04 Generated by Ultiboard 11.0 *
%FSLAX25Y25*%
%MOIN*%

%ADD10C,0.00500*%
%ADD11C,0.00004*%


G04 ColorRGB CBCBCB for the following layer *
%LNMechanical 1*%
%LPD*%
%FSLAX25Y25*%
%MOIN*%
G54D10*
X-62400Y-1500D02*
X-62400Y8643D01*
X-62400Y-1500D02*
X-32388Y-1500D01*
X237720Y-1500D02*
X207708Y-1500D01*
X237720Y-1500D02*
X237720Y8643D01*
X237720Y99925D02*
X237720Y89783D01*
X237720Y99925D02*
X207708Y99925D01*
X-62400Y99925D02*
X-32388Y99925D01*
X-62400Y99925D02*
X-62400Y89783D01*
X-82085Y-1500D02*
X-121455Y-1500D01*
X-101770Y-21185D02*
X-101770Y18185D01*
X-116534Y-1500D02*
G75*
D01*
G02X-116534Y-1500I14764J0*
G01*
X257406Y-1500D02*
X296776Y-1500D01*
X277091Y-21185D02*
X277091Y18185D01*
X262327Y-1500D02*
G75*
D01*
G02X262327Y-1500I14764J0*
G01*
X272169Y-1500D02*
G75*
D01*
G02X272169Y-1500I4921J0*
G01*
X-82085Y99925D02*
X-121455Y99925D01*
X-101770Y80240D02*
X-101770Y119610D01*
X-116534Y99925D02*
G75*
D01*
G02X-116534Y99925I14764J0*
G01*
X-111613Y99925D02*
G75*
D01*
G02X-111613Y99925I9843J0*
G01*
X-106691Y99925D02*
G75*
D01*
G02X-106691Y99925I4921J0*
G01*
X-62400Y-1500D02*
X-62400Y8643D01*
X-62400Y-1500D02*
X-32388Y-1500D01*
X237720Y-1500D02*
X207708Y-1500D01*
X237720Y-1500D02*
X237720Y8643D01*
X237720Y99925D02*
X237720Y89783D01*
X237720Y99925D02*
X207708Y99925D01*
X-62400Y99925D02*
X-32388Y99925D01*
X-62400Y99925D02*
X-62400Y89783D01*
X-82085Y-1500D02*
X-121455Y-1500D01*
X-101770Y-21185D02*
X-101770Y18185D01*
X-116534Y-1500D02*
G75*
D01*
G02X-116534Y-1500I14764J0*
G01*
X257406Y-1500D02*
X296776Y-1500D01*
X277091Y-21185D02*
X277091Y18185D01*
X262327Y-1500D02*
G75*
D01*
G02X262327Y-1500I14764J0*
G01*
X272169Y-1500D02*
G75*
D01*
G02X272169Y-1500I4921J0*
G01*
X-82085Y99925D02*
X-121455Y99925D01*
X-101770Y80240D02*
X-101770Y119610D01*
X-116534Y99925D02*
G75*
D01*
G02X-116534Y99925I14764J0*
G01*
X-111613Y99925D02*
G75*
D01*
G02X-111613Y99925I9843J0*
G01*
X-106691Y99925D02*
G75*
D01*
G02X-106691Y99925I4921J0*
G01*
G54D11*
X0Y0D02*
X236220Y0D01*
X236220Y0D02*
X236220Y98425D01*
X236220Y98425D02*
X0Y98425D01*
X0Y98425D02*
X0Y0D01*

M00*
